<?xml version="1.0" encoding="utf-8"?>
<!-- Generator: Adobe Illustrator 24.1.0, SVG Export Plug-In . SVG Version: 6.00 Build 0)  -->
<svg version="1.1" id="Layer_1" xmlns="http://www.w3.org/2000/svg" xmlns:xlink="http://www.w3.org/1999/xlink" x="0px" y="0px"
	 width="734px" height="477.8px" viewBox="0 0 734 477.8" enable-background="new 0 0 734 477.8" xml:space="preserve">
<g>
	<g id="Layer_1_1_">
		<g id="Build">
			<g id="Build-2">
				<g id="Background">
					<g id="Element">
						<rect id="Shape" x="580.6" y="113.9" fill="#FFFFFF" width="104.3" height="60"/>
						<path fill="#DFD7E4" d="M685.2,113.3c0.8,0.2,0.9,0.4,1,1.1V174c-0.1,0.9-0.3,1.1-1.2,1.2H580.5c-0.9-0.1-1.1-0.3-1.2-1.2
							v-59.5c0.1-0.9,0.3-1.1,1.2-1.2H685H685.2z M581.8,115v57.6h101.9V115H581.8z"/>
						<path fill="#DFD7E4" d="M581,113.1c0.1,0,0.3,0.1,0.4,0.1L685.6,173c1,0.7,0.3,2.7-1.2,2l-104.2-59.7
							c-0.5-0.4-0.7-1.1-0.3-1.6C580.1,113.3,580.6,113.1,581,113.1z"/>
						<path fill="#DFD7E4" d="M685.1,113.1c0.9,0.1,0.9,0.4,1,0.7c0.2,0.5,0,1.1-0.5,1.4l-26.5,15.2c-1.1,0.6-2.5-1.1-1.2-2
							l26.5-15.2C684.6,113.1,684.8,113.1,685.1,113.1z"/>
						<path fill="#DFD7E4" d="M646,135.6c0.6,0.2,1,0.9,0.8,1.5c-0.1,0.3-0.2,0.5-0.5,0.6l-65,37.3c-1.1,0.5-2.5-1.1-1.2-2l65-37.3
							C645.5,135.6,645.7,135.5,646,135.6z"/>
					</g>
					<path fill="#FFFFFF" d="M547.3,207.9h96.1c0.8,0,1.5,0.7,1.5,1.5l0,0v107.4c0,0.8-0.7,1.5-1.5,1.5l0,0H507.5
						c-0.8,0-1.5-0.7-1.5-1.5V209.4c0-0.8,0.7-1.5,1.5-1.5h27"/>
					<path fill="#DFD7E4" d="M643.7,206.6c1.4,0.1,2.4,1.2,2.5,2.6c0.5,35.8,0.5,71.6,0,107.4c-0.1,1.4-1.2,2.5-2.6,2.6
						c-45.3,0.6-90.5,0.6-135.8,0c-1.4-0.1-2.5-1.2-2.6-2.6c-0.5-35.8-0.5-71.6,0-107.4c0.1-1.4,1.2-2.5,2.7-2.5H535
						c0.7,0.1,1.2,0.6,1.1,1.3c0,0.6-0.5,1.1-1.1,1.1h-27.1c-0.2-0.2-0.3,0-0.4,0.2c-0.4,35.7,0,71.5,0,107.3c0,0.2,0.2,0.3,0.3,0.3
						c45.2,0.6,90.4,0,135.6,0c0.2,0,0.3-0.1,0.4-0.3c0.4-35.7,0-71.5,0-107.3c0-0.2-0.2-0.4-0.4-0.2h-96c-1.2-0.3-1.7-2.3,0-2.5
						C579.6,206.6,611.7,205.3,643.7,206.6z"/>
					<path fill="#FFFFFF" d="M574.5,264.8l19,23c0.1,0.1,0.2,0.1,0.2,0l33.1-29.2c0.7-0.6,1.7-0.6,2.3,0.1l15.7,16.1v41.9
						c0,0.8-0.7,1.5-1.5,1.5l0,0H507.5c-0.8,0-1.5-0.7-1.5-1.5v-24.8l43.3-54.9c0.6-0.8,1.7-0.9,2.5-0.3c0.1,0.1,0.2,0.2,0.3,0.3
						l17.8,21.8"/>
					<path fill="#DFD7E4" d="M628,256.8c0.7,0,1.4,0.3,1.9,0.9l15.7,16.1c0.2,0.2,0.3,0.5,0.3,0.8c0,14,0.2,28,0,42.1
						c-0.1,1.4-1.2,2.5-2.6,2.6c-45.3,0.6-90.7,0.6-136,0c-1.4-0.1-2.5-1.2-2.6-2.7v-24.9c0.2-0.2,0.5-0.4,0.7-0.7l43.2-54.9
						c1.1-1.3,3-1.4,4.3-0.3c0.1,0.1,0.2,0.2,0.3,0.3l17.7,21.8c0.7,1-0.6,2.7-1.8,1.5c-5.9-7.3-11.5-14.8-17.8-21.8
						c-0.3-0.3-0.9,0-0.9,0l-43.3,54.6v24.4c0,0.2,0.1,0.3,0.3,0.4c45.3,0.6,90.5,0,135.8,0c0.2,0,0.3-0.2,0.3-0.4V275
						c-5.1-5.3-10-10.9-15.4-15.8c-0.2-0.2-0.5-0.2-0.7,0c-11.2,9.6-22.1,19.5-33.1,29.2c-0.2,0.2-0.7,0.8-1.6,0
						c-0.1-0.1-0.2-0.1-0.2-0.2l-19-23.1c-0.2-0.3-0.3-0.8-0.2-1.1c0.3-0.6,1-0.9,1.6-0.6c0.1,0.1,0.3,0.2,0.4,0.3l18.4,22.3
						c10.8-9.5,21.4-19.2,32.4-28.6C627.1,256.6,626.9,256.8,628,256.8z"/>
					<path fill="#FFFFFF" d="M607.5,236.1c0,6-4.9,10.9-10.9,10.9s-10.9-4.9-10.9-10.9s4.9-10.9,10.9-10.9
						C602.6,225.2,607.5,230.1,607.5,236.1L607.5,236.1"/>
					<path fill="#DFD7E4" d="M596.7,224c8,0.2,14.5,9.6,10.7,17.3c-3.3,6.8-13.6,8.9-19.2,3.5s-4.2-16.2,3.2-19.7
						C593.1,224.4,594.9,224,596.7,224z M596.4,226.4c-6.5,0.1-11.7,7.7-8.7,14c2.6,5.5,11,7.2,15.5,2.8c3.1-3.1,3.9-7.8,1.8-11.7
						C603.4,228.3,600.1,226.3,596.4,226.4z"/>
					<rect x="45.1" y="173.9" fill="#FFFFFF" width="124.3" height="124.3"/>
					<path fill="#DFD7E4" d="M169.7,172.7c0.6,0.1,1,0.6,0.9,1.1v124.4c-0.1,1-0.3,1.1-1.2,1.2H45.1c-1-0.1-1.1-0.3-1.2-1.2V173.8
						c0.1-1,0.3-1.1,1.2-1.2h124.4L169.7,172.7z M46.3,175.1V297h121.9V175.1H46.3z"/>
					<path fill="#DFD7E4" d="M45.1,172.8c0.2,0.1,0.4,0.2,0.6,0.3L170,297.5c0.8,0.9-0.4,2.6-1.6,1.6L44,174.8
						C43.4,174,43.6,172.7,45.1,172.8z"/>
					<path fill="#DFD7E4" d="M169.4,172.8c0.7,0.1,1.1,0.8,1,1.4c0,0.2-0.1,0.4-0.3,0.6l-31.6,31.6c-0.9,0.8-2.8-0.4-1.6-1.6
						l31.6-31.6C168.8,172.8,168.8,172.7,169.4,172.8z"/>
					<path fill="#DFD7E4" d="M129.1,213.1c0.6,0.2,1,0.9,0.8,1.5c0,0.2-0.1,0.3-0.2,0.4l-84,84c-0.9,0.8-2.7-0.4-1.6-1.6l84-84
						C128.4,213.2,128.7,213.1,129.1,213.1z"/>
					<rect x="310.1" y="44.1" fill="#FFFFFF" width="60" height="60"/>
					<path fill="#DFD7E4" d="M370.4,43.5c0.8,0.2,0.9,0.4,1,1.1v59.5c-0.1,0.9-0.3,1.1-1.2,1.2h-59.5c-0.9-0.1-1.1-0.3-1.2-1.2V44.7
						c0.1-0.9,0.3-1.1,1.2-1.2h59.5H370.4z M311.3,45.3v57.6H369V45.3H311.3z"/>
					<path fill="#DFD7E4" d="M310.6,43.3c0.2,0,0.4,0.1,0.6,0.3l59.7,59.7c0.8,0.9-0.4,2.7-1.6,1.6l-59.7-59.7
						c-0.4-0.5-0.4-1.2,0.1-1.7C309.9,43.4,310.2,43.3,310.6,43.3z"/>
					<path fill="#DFD7E4" d="M370.1,43.3c0.6,0.1,0.6,0.2,0.8,0.4c0.4,0.5,0.4,1.2-0.1,1.6l0,0l-15.2,15.2c-0.9,0.8-2.8-0.4-1.6-1.6
						l15.2-15.2C369.5,43.4,369.8,43.3,370.1,43.3z"/>
					<path fill="#DFD7E4" d="M347.7,65.8c0.7,0.1,1.1,0.7,1,1.4c0,0.2-0.1,0.4-0.3,0.6L311.1,105c-1.7,1.6-2.4-0.8-1.6-1.6
						l37.3-37.3C347,65.8,347.4,65.7,347.7,65.8z"/>
					<path fill="#FFFFFF" d="M162.8,15.6h108c0.9,0,1.7,0.8,1.7,1.7l0,0v120.9c0,0.9-0.8,1.7-1.7,1.7l0,0h-153
						c-0.9,0-1.7-0.8-1.7-1.7l0,0V17.3c0-0.9,0.7-1.7,1.7-1.7l0,0h30.4"/>
					<path fill="#DFD7E4" d="M270.7,14.2c1.5,0.1,2.6,1.3,2.7,2.8c0.5,40.4,0.5,80.7,0,121.1c-0.1,1.5-1.3,2.7-2.8,2.8
						c-51,0.6-102.1,0.6-153.1,0c-1.5-0.1-2.7-1.3-2.8-2.8c-0.5-40.4-0.5-80.7,0-121.1c0-1.5,1.3-2.7,2.8-2.6c0,0,0,0,0.1,0h30.5
						c0.6,0,1.1,0.4,1.2,1c0,0.6-0.4,1.1-1,1.2c-0.1,0-0.1,0-0.2,0c-10.2,0-20.4-0.6-30.6,0c-0.3,0-0.5,0.3-0.5,0.5
						c-0.5,40.3-2.6,80.8,0,121c0,0.3,0.2,0.5,0.5,0.5c51,0.6,102.1,3.2,153,0c0.3,0,0.5-0.2,0.5-0.5c0.5-40.3,2.5-80.8,0-121
						c0-0.3-0.3-0.5-0.5-0.2H162.3c-1.2-0.4-1.6-2.4,0-2.6C198.5,14.2,234.6,12.9,270.7,14.2z"/>
					<path fill="#FFFFFF" d="M193.2,79.6l21.4,26c0.1,0.1,0.2,0.1,0.2,0l0,0l37.3-32.9c0.8-0.6,1.9-0.6,2.6,0.1L272.5,91v47.3
						c0,0.9-0.8,1.7-1.7,1.7l0,0h-153c-0.9,0-1.7-0.8-1.7-1.7l0,0v-28l48.8-61.9c0.7-0.9,1.9-1,2.8-0.3c0.1,0.1,0.2,0.2,0.3,0.3
						l20,24.5"/>
					<path fill="#DFD7E4" d="M253.5,70.9c0.8,0,1.5,0.4,2.1,0.9L273.3,90c0.2,0.2,0.3,0.5,0.3,0.8c0,15.8,0.2,31.6,0,47.4
						c-0.1,1.5-1.3,2.7-2.8,2.8c-51.1,0.7-102.1,0.7-153.2,0c-1.5-0.1-2.7-1.3-2.8-2.9v-28c0-0.2,0.1-0.5,0.2-0.7l48.8-61.9
						c1.2-1.4,3.2-1.5,4.6-0.4c0.1,0.1,0.2,0.2,0.3,0.3l20,24.6c0.7,1-0.6,2.7-1.8,1.5c-6.7-8.2-13-16.7-20.1-24.6
						c-0.3-0.3-0.9-0.3-1.2,0c0,0,0,0-0.1,0.1l-48.6,61.6c0,9.2-0.6,18.5,0,27.7c0,0.3,0.2,0.5,0.5,0.5c51,0.7,102.2,3.2,153.1,0
						c0.3,0,0.5-0.3,0.5-0.5v-47c-5.8-5.9-11.3-12.3-17.4-17.8c-0.3-0.2-0.7-0.2-0.9,0c-12.9,10.5-24.9,22-37.3,33
						c-0.7,0.5-1.9-0.2-1.9-0.2l-21.4-26c-0.2-0.3-0.3-0.6-0.2-1c0.2-0.6,0.8-1,1.5-0.8c0.2,0.1,0.4,0.2,0.6,0.3l20.7,25.2
						c12.2-10.8,24.3-21.7,36.6-32.3C252.5,70.7,252.3,70.9,253.5,70.9z"/>
					<path fill="#FFFFFF" d="M229.9,47.4c0,6.8-5.5,12.3-12.3,12.3s-12.3-5.5-12.3-12.3s5.5-12.3,12.3-12.3l0,0
						C224.4,35.1,229.9,40.6,229.9,47.4"/>
					<path fill="#DFD7E4" d="M217.7,33.8c7.6,0.1,14.3,7.6,13.2,15.4c-1.1,6.6-6.7,11.4-13.3,11.6c-8.9,0-16.4-10.7-12.1-19.5
						c2.3-4.5,6.9-7.4,11.9-7.5C217.4,33.8,217.7,33.8,217.7,33.8z M217.4,36.2c-7.4,0.1-13.4,8.8-9.9,16c3,6.3,12.5,8.2,17.7,3.2
						c6.1-5.8,2.7-19-7.5-19.2H217.4z"/>
				</g>
				<path fill="#7F77BF" d="M278,152.1v180.7h-53.4V153.5c0-0.5,0-0.9,0.1-1.4H278z"/>
				<path fill="#41146C" d="M277.9,150.2l0.4,0.1c1.3,0.4,1.4,0.6,1.5,1.9v181.1c-0.1,1.6-0.5,1.8-1.9,1.9h-53.5
					c-1.6-0.1-1.8-0.5-1.9-1.9c0-60-0.6-119.9,0-179.9c0-1.5-0.1-2.9,2-3.1L277.9,150.2z M226.4,153.9V331h49.7V153.9H226.4z"/>
				<path fill="#D6D5EB" d="M417,464.4h-96.3c-3.2,0-5.8-2.6-5.8-5.8c0-0.3,0-0.6,0.1-1l12.4-73.3h83l12.4,73.3
					c0.5,3.2-1.6,6.2-4.8,6.7C417.6,464.4,417.3,464.4,417,464.4z"/>
				<path fill="#41146C" d="M410.4,381.9h0.4c1.2,0.3,1.3,0.5,1.6,1.6c4.1,24.5,8.5,49,12.4,73.6c0.5,4.4-2.6,8.4-7,8.9
					c-0.2,0-0.4,0-0.6,0c-32.3,0.2-64.6,0.2-96.8,0c-4.4-0.2-7.8-3.9-7.6-8.3c0-0.2,0-0.5,0.1-0.7l12.4-73.5
					c0.3-1.3,0.6-1.5,1.9-1.6H410.4z M328.8,386.2c-4.1,24-8.6,47.9-12.2,72c-0.2,2.2,1.4,4.2,3.6,4.4h0.1c32.3,0.7,64.5,0.7,96.8,0
					c2.2-0.1,3.9-2,3.7-4.2c0-0.1,0-0.2,0-0.3l-12.1-71.9H328.8z"/>
				<path fill="#D6D5EB" d="M528.5,332.8v22.3c0,15.8-12.9,28.7-28.8,28.6l0,0H238.3c-15.8,0-28.7-12.8-28.8-28.6l0,0v-22.3H528.5z"
					/>
				<path fill="#41146C" d="M528.4,331l0.8,0.2c0.4,0.2,0.7,0.6,0.9,0.9l0.1,0.7c0,7.5,0,15.1,0,22.6c-0.1,15.7-13.7,30.3-30.5,30.5
					c-87.2,0.3-174.4,0.3-261.6,0c-15.8-0.2-30.4-13.6-30.5-30.7v-22.4l0.1-0.7l0.4-0.6c0.4-0.3,0.9-0.5,1.4-0.6L528.4,331z
					 M211.2,334.6c0,6.9,0,13.8,0,20.7c0.1,13.7,11.9,26.5,26.6,26.6c87.2,0.3,174.4,0.3,261.6,0c13.8-0.1,26.6-12.1,26.6-26.8
					v-20.5L211.2,334.6z"/>
				<path fill="#FFFFFF" d="M528.5,237.6v95.2h-319V149.2c0-15.1,12.1-27.4,26.9-27.4h267.7c13.4,0,24.3,11.1,24.3,24.8v74.1"/>
				<path fill="#41146C" d="M504.1,119.8c13.8,0.1,26.2,12.3,26.2,26.7v73.9c-0.1,0.8-0.5,1.4-1.2,1.8l-0.7,0.1l-0.7-0.1l-0.6-0.4
					c-0.3-0.4-0.5-0.9-0.6-1.4c0-24.7,0.1-49.4,0-74.1c-0.1-11.6-9.8-22.5-22.1-22.7c-89.4-0.9-178.8-0.3-268.2,0
					c-13.1,0.1-24.8,11.7-24.8,25.5V331h315.4v-93.6c-0.3-0.5-0.3-1.1,0.8-1.8l0.7-0.1l0.7,0.1l0.6,0.4c0.3,0.4,0.5,0.9,0.7,1.4V333
					l-0.3,0.7l-0.4,0.6l-0.6,0.4l-0.7-0.1H209.4l-0.7,0.1c-0.4-0.2-0.8-0.6-1-1.1l-0.1-0.7c0-61.3-0.2-122.6,0-184
					c0.1-15,12.8-29,28.7-29.2C325.5,119.5,414.8,119.5,504.1,119.8z"/>
				<path fill="#FFFFFF" fill-opacity="0.3" d="M513.3,148.3v3.8H224v-3.8c0-7.3,5.9-13.2,13.2-13.2H500
					C507.4,135.1,513.3,141,513.3,148.3L513.3,148.3z"/>
				<path fill="#41146C" d="M500.8,132.8c7.9,0.1,14.9,7,15,15.1v4c-0.1,0.8-0.5,1.4-1.2,1.8l-0.7,0.2H224.1l-0.7-0.2
					c-0.4-0.2-0.8-0.6-1.1-1l-0.1-0.7v-4c0-0.6,0-1.3,0.1-1.9c1.1-7.4,7.4-13,14.8-13.2C325,132.3,412.9,132.3,500.8,132.8z
					 M237.1,136.9c-6.2,0.2-11.1,5.1-11.3,11.3v2h285.6c0-2,0-4.1-0.7-5.9c-1.7-4.4-5.8-7.3-10.5-7.4
					C412.6,136.4,324.9,136.9,237.1,136.9z"/>
				<rect x="224" y="152.1" fill="#FFFFFF" width="289.3" height="180.7"/>
				<path fill="#41146C" d="M514.6,150.5c0.6,0.4,1,1,1.1,1.7v181.1l-0.1,0.7l-0.4,0.6l-0.6,0.4l-0.7,0.1H224.1l-0.7-0.1
					c-0.4-0.2-0.8-0.6-1.1-1l-0.1-0.7V152.2l0.1-0.7c0.2-0.4,0.6-0.8,1.1-1l0.7-0.2h289.8L514.6,150.5z M225.8,153.9V331h285.6
					V153.9H225.8z"/>
				<path fill="#D6D5EB" d="M337.4,198.8h-83.2c-1.6,0-2.9-1.3-2.9-2.9v-22.1c0-1.6,1.3-2.9,2.9-2.9l0,0h83.3c1.6,0,2.9,1.3,2.9,2.9
					v22.1c0,1.6-1.3,2.9-2.9,2.9"/>
				<path fill="#FFFFFF" fill-opacity="0.3" d="M337.4,198.8h-83.2c-1.6,0-2.9-1.3-2.9-2.9v-22.1c0-1.6,1.3-2.9,2.9-2.9l0,0h83.3
					c1.6,0,2.9,1.3,2.9,2.9v22.1c0,1.6-1.3,2.9-2.9,2.9"/>
				<path fill="#41146C" d="M278.1,142.2c1.2,0.1,1.3,2.2,0,2.3c-1.9,0-3.9,0-5.8,0c-1.2,0-1.5-2.2,0-2.3
					C274.2,142.1,276.1,142.2,278.1,142.2z"/>
				<path fill="#41146C" d="M266.7,142.4c1.2,0.2,1.5,2.4-0.1,2.4h-24.8c-2.4-0.1-1.2-2.4,0-2.4H266.7L266.7,142.4z"/>
				<path fill="#41146C" d="M224.1,354.5c1.5,0.2,1.3,2.8,2.1,4.8c1.4,3.6,4,6.6,7.2,8.7c0.3,0.2,0.5,0.6,0.5,1c0,1-1.2,1.4-2.6,0.4
					c-4.5-3.2-7.6-8.1-8.5-13.5C222.9,355.9,222.8,354.4,224.1,354.5z"/>
				<path fill-opacity="0.25" d="M491.2,382.3c0,0,11,0.7,17.8-2.1c5.5-2.2,10-6.5,13-10.8c1.9-2.8,3-6.9,3.6-9.5
					c0.3-1.5,0.5-3,0.5-4.5v-20.7h-14.6V354c0.1,9.3-1.9,19.2-10,24.8C499.7,380,496.5,381.3,491.2,382.3"/>
				<path fill="#41146C" d="M363.5,412.3c0.3,0,0.6,0.2,0.8,0.4l12.5,14.7c0.5,0.7,0.3,1,0.1,1.4c-0.3,0.5-1.1,0.7-1.6,0.4
					c-0.1-0.1-0.2-0.1-0.3-0.2l-12.5-14.7c-0.2-0.2-0.3-0.5-0.3-0.8C362.2,412.7,362.5,412.2,363.5,412.3z"/>
				<path fill="#41146C" d="M372,412.8c1.3,0,2.6,2.4,4,4.1c0.7,0.9-0.7,2.7-1.8,1.5c-1.5-1.7-3.5-3.5-3.4-4.5
					C370.9,413.3,371.4,412.8,372,412.8z"/>
				<path fill="#41146C" d="M360.8,418.9c0.3,0,0.6,0.1,0.8,0.4c2.3,2.6,4.5,5.3,6.7,7.9c0.7,0.9-0.6,2.6-1.7,1.5
					c-2.3-2.6-4.5-5.3-6.7-7.9c-0.4-0.5-0.3-1.2,0.2-1.6C360.3,419,360.6,418.9,360.8,418.9z"/>
				<path fill-opacity="0.25" d="M395.6,386.2h13.1L421,458c0.4,2.1-1.1,4.1-3.2,4.5c-0.2,0-0.4,0.1-0.6,0.1h-16.8
					c0,0,3.5-1.8,3.2-9.5c-0.1-4.9-8.1-66.9-8.1-66.9"/>
				<path fill="#41146C" d="M162.4,410.8c1,0.1,1,0.6,1.4,1c6.4,6.6,11,14.6,13.6,23.4c0.4,1.3-0.4,2.7-1.6,2
					c-0.4-0.3-0.6-0.8-0.7-1.3c-2.5-8.7-7.2-16.6-13.6-23.1c-0.2-0.2-0.3-0.5-0.3-0.9C161.1,411.2,161.7,410.7,162.4,410.8
					C162.3,410.8,162.3,410.8,162.4,410.8z"/>
				<path fill="#D6D5EB" d="M240.8,270.9h19.6c0.6,0,1,0.5,1,1c0,0.2-0.1,0.4-0.2,0.5c-6.6,10.6-20.5,13.9-31.2,7.4
					c-10.6-6.6-13.9-20.5-7.4-31.2c6.6-10.6,20.5-13.9,31.2-7.4c3,1.8,5.5,4.4,7.4,7.4c0.3,0.5,0.2,1.1-0.3,1.4
					c-0.2,0.1-0.4,0.2-0.5,0.2h-19.6c-1.6,0-2.9,1.3-2.9,2.9l0,0V268C238,269.6,239.2,270.9,240.8,270.9L240.8,270.9z"/>
				<path fill="#41146C" d="M242.4,235.8c8.3,0.1,16,4.4,20.5,11.4c1.2,1.9,0.2,4.7-2.2,4.8c-6.6,0.1-13.2-0.2-19.8,0
					c-0.5,0-0.8,0.4-0.9,0.9c-0.2,5-0.2,10,0,15c0,0.5,0.4,0.8,0.9,0.9c6.6,0.2,13.1,0,19.7,0c2.3,0,3.7,2.8,2,5.3
					c-6.6,9.8-20.7,13.7-31.5,8.3c-5.5-2.8-9.7-7.5-11.9-13.2c-4.5-11.9,1.8-26.9,14-31.7C236.2,236.3,239.3,235.8,242.4,235.8z
					 M242,240c-9.2,0.1-17.7,6.9-19.8,15.8c-3,12.8,8.5,27.3,23.2,25c5.3-0.9,10.1-3.8,13.3-8.1l-17.8-0.1c-2.6-0.1-4.6-2.2-4.7-4.7
					c-0.1-5.1,0-10.1,0-15.2c0.1-2.6,2.2-4.8,4.8-4.8h17.4c-3.6-4.9-9.3-7.8-15.4-7.9L242,240z"/>
				<path fill="#D6D5EB" d="M226,260c0,1.6-0.3,3.3-0.9,4.8c-2,5.2-6.9,8.6-12.5,8.6l-9.1,0.6h-26.8l0,0l1.8-6.7
					c2.3-8.3-2.2-17-10.2-20h44.3c7.4,0,13.4,6,13.4,13.4"/>
				<path fill="#41146C" d="M212.6,245.2c9.8,0.1,18,11.1,14.3,20.8c-2.3,5.8-7.9,9.7-14.2,9.8c-3.1,0-6.2,0-9.2,0h-27
					c0,0-1.9-0.4-1.9-1.9c0-0.2,0-0.3,0.1-0.5c1.1-4,2.6-7.9,2.3-11.9c-0.6-5.6-4.3-10.5-9.5-12.5c0,0-1.5-0.9-1.2-2.2
					c0.2-0.9,1-1.6,1.9-1.6H212.6z M174.9,249.2c4.9,4.7,6.9,11.7,5.3,18.4L179,272c11.2,0,22.5,0.1,33.7,0
					c6-0.1,11.5-5.4,11.3-11.8c-0.3-6.1-5.3-11-11.4-11.1L174.9,249.2L174.9,249.2z"/>
				<path fill="#FFFFFF" d="M206.2,262.4c1.1,2,3.7,2.7,5.7,1.6s2.7-3.7,1.6-5.7s-3.7-2.7-5.7-1.6l0,0
					C205.8,257.8,205,260.3,206.2,262.4"/>
				<path fill="#41146C" d="M209.9,254.3c4.6,0.1,7.9,6.5,4.3,10.2c-3.2,3.3-10.4,1.4-10.5-4.1c0-3.3,2.6-5.9,5.8-6.1L209.9,254.3
					L209.9,254.3z M209.8,258c-1.8,0-3.2,2.7-1.5,4.1c1.4,1.3,4.4-0.1,3.8-2.4C211.8,258.7,210.9,258,209.8,258L209.8,258z"/>
				<path fill="#41146C" d="M197.8,260.1c0.9,0,0.9,0.3,1.1,0.7c0.3,0.6,0,1.3-0.7,1.6c-0.1,0.1-0.3,0.1-0.4,0.1H186
					c-0.9,0-0.9-0.3-1-0.7c-0.3-0.6,0-1.3,0.6-1.6c0.1-0.1,0.3-0.1,0.4-0.1H197.8z"/>
				<path fill="#D6D5EB" d="M178.5,267l-1.8,6.7l0,0l-39,144.2c-9.7-6-21.4-7.7-32.4-4.7l-0.6,0.2l37.4-139.7l4.1-15.4
					c1.3-4.9,4.7-8.9,9.4-10.9c0.3-0.1,0.6-0.3,0.9-0.4l0,0c3.3-1.2,6.8-1.4,10.2-0.5c0.5,0.1,1,0.3,1.5,0.5l0,0
					C176.4,250,180.8,258.7,178.5,267z"/>
				<path fill="#FFFFFF" fill-opacity="0.3" d="M178.5,267l-1.8,6.7l0,0l-39,144.2c-9.7-6-21.4-7.7-32.4-4.7l-0.6,0.2l37.4-139.7
					l4.1-15.4c1.3-4.9,4.7-8.9,9.4-10.9c0.3-0.1,0.6-0.3,0.9-0.4l0,0c3.3-1.2,6.8-1.4,10.2-0.5c0.5,0.1,1,0.3,1.5,0.5l0,0
					C176.4,250,180.8,258.7,178.5,267z"/>
				<path fill="#41146C" d="M162.4,244c11.3,0.1,21.1,11.7,17.9,23.5l-1.7,6.5v-0.2l-0.1,0.5l-39,144.2c-0.4,1-0.5,0.9-0.8,1.1
					c-1.4,0.9-3.5-0.9-5.7-2c-8.7-4.1-18.6-5-27.8-2.3c0,0-2.9,0.2-2.4-2.4l37.4-139.7l4.1-15.4c0.2-0.7,0.4-1.3,0.6-1.9
					c1.9-4.8,5.7-8.6,10.5-10.5c0.3-0.2,0.7-0.3,1.1-0.4c0.4-0.1,0.9-0.3,1.4-0.4C159.3,244.1,160.9,244,162.4,244z M161.7,247.8
					c-1.7,0-3.4,0.3-5,0.9c-0.3,0.1,0.6-0.2-0.4,0.1c-4.3,1.8-7.5,5.4-8.8,9.9l-4.1,15.4l-36.6,136.5c9.9-2,20.2-0.5,29.1,4.2
					l38.3-141.5v0.2l0.1-0.5c1.2-4.3,2.8-8.6,2.2-12.8c-0.9-5.3-4.5-9.7-9.4-11.7c-0.2-0.1-0.4-0.2-0.7-0.2c-0.2-0.1-0.6-0.2-1-0.3
					C164.2,248,163,247.8,161.7,247.8L161.7,247.8z"/>
				<path fill="#FFFFFF" d="M157.1,266.7c1.1,2.5,4,3.6,6.5,2.5s3.6-4,2.5-6.5s-4-3.6-6.5-2.5C157.1,261.3,156,264.2,157.1,266.7"/>
				<path fill="#41146C" d="M161.6,257.8c4.4,0.1,8.1,5.1,6.3,9.5c-2.1,5.1-11.6,5.5-13-1.1c-0.7-3.8,1.8-7.5,5.6-8.2
					C160.8,257.9,161.2,257.8,161.6,257.8z M161.5,261.7c-2.2,0-3.8,2.9-2.3,4.8c1.6,2,6,0.7,5.3-2.5
					C164.2,262.7,162.9,261.7,161.5,261.7z"/>
				<path fill="#41146C" d="M140,339.3c0.6,0.1,1,0.6,0.9,1.2c0,0.1,0,0.1,0,0.2l-15.4,56.7c-0.1,0.3-0.3,0.6-0.6,0.7
					c-0.6,0.3-1.3,0-1.6-0.6c-0.1-0.2-0.1-0.5-0.1-0.7l15.4-56.7C138.9,339.4,139.1,339.2,140,339.3z"/>
				<path fill="#41146C" d="M154.7,284.6c0.7,0.1,1.1,0.8,1,1.4l0,0l-11.6,42.7c-0.4,1.2-2.6,1-2.2-0.6l11.6-42.7
					C153.6,284.8,154.1,284.4,154.7,284.6L154.7,284.6z"/>
				<path fill="#FFFFFF" d="M156.7,452.8v11.6l-31.4,0.6h-0.5l-33.5-0.6H74.9v-11.6c0-1.2,0-2.4,0.2-3.5
					c1.5-16.9,13.2-31.2,29.4-35.9l0.6-0.2c3.5-1,7.2-1.5,10.9-1.5c7.6,0,15.1,2.1,21.6,6.1l0.4,0.2c2.6,1.6,4.9,3.5,7.1,5.7
					c6.9,6.8,11.1,15.9,11.9,25.5C156.8,450.5,156.8,451.6,156.7,452.8z"/>
				<path fill="#41146C" d="M116.3,409.5c17.6,0.1,35,12.2,40.7,29.7c1.4,4.2,2.1,8.6,2.1,13.1v12c0,0-0.3,1.8-1.9,1.9H91.5H75.1
					c0,0-1.8-0.4-1.9-1.9c0-8.9-0.4-17.9,2.5-26.1c4.8-13,15.3-22.9,28.5-26.9C108.1,410.1,112.2,409.5,116.3,409.5z M115.6,413.7
					c-15.9,0.1-31.3,10.8-36.7,26.1c-1.5,4.2-2.2,8.6-2.2,13.1v9.8h48h30.2c0-7.5,0.3-15-1.9-21.9c-5-15.4-20.3-26.9-36.9-27
					L115.6,413.7z"/>
				<path fill-rule="evenodd" clip-rule="evenodd" fill="#FFCF91" d="M133.1,449.2h23.5c0.1,1.2,0.2,2.3,0.2,3.5v11.7l-31.4,0.6
					h-0.5l-33.5-0.6H74.9v-11.7c0-1.2,0-2.3,0.1-3.5h41.1"/>
				<path fill="#41146C" d="M116,447.4c1.8,0.3,2.7,3.5-0.2,3.6H76.7c0,0.5,0,1,0,1.5v10h14.6c11.3,0,34,0.6,34,0.6H155
					c0-3.8,0.1-7.7,0-11.5l-21.7-0.1c-0.8-0.1-1.5-0.5-1.9-1.2c-0.4-1.1,0.1-2.4,1.2-2.8c0.2-0.1,0.4-0.1,0.7-0.1H157
					c2,0.1,2.1,3,2.1,5.3v12.1c0,0-0.3,1.9-2,2H90.4H73.6c0,0-1.9-0.4-2-2c0-5.2-0.3-10.4,0.1-15.4c0-1.1,0.9-2,2-2h41.8H116z"/>
				<path fill="#41146C" d="M131.6,424.1c1.3,0.1,3.1,1.8,4.8,3.1c1.2,1,2.4,2,3.5,3.1c0.3,0.4,0.4,0.8,0.2,1.3
					c-0.7,1.5-3-0.9-5.2-2.6c-1.2-1-2.6-1.9-4-2.8c-0.6-0.3-0.7-1.1-0.4-1.6C130.8,424.3,131.2,424.1,131.6,424.1z"/>
				<path d="M154.6,447.4c-0.5-3.2-1.4-6.3-2.6-9.3c-0.6-1.5-2.1-5.9-7.5-11.8c-3.6-3.7-7.7-6.7-12.3-9c0,0,11.9,7.5,13.9,30.1
					L154.6,447.4z"/>
				<rect x="146.4" y="451.1" fill-opacity="0.25" width="8.5" height="11.5"/>
				<path fill-opacity="0.25" d="M136.2,415c-4.7-2.5-9.9-4.1-15.2-4.8c-6.2-1-14,0.7-14,0.7l1.7-5.9c0,0,15.8-4.1,29,4.6L136.2,415
					z"/>
				<path fill-rule="evenodd" clip-rule="evenodd" fill="#00D4AE" d="M309.9,300h-43.1c-6.8,0-12.4-5.5-12.4-12.4l0,0v-55.3
					c0-6.8,5.5-12.4,12.4-12.4l0,0h43.1c6.8,0,12.4,5.5,12.4,12.4v55.3C322.3,294.5,316.7,300,309.9,300L309.9,300z"/>
				<path fill="#41146C" d="M310,217.7c7.7,0.3,13.8,6.5,14.1,14.1c0.1,18.5,0,37.1,0,55.6c0,7.4-6.4,14.2-14.1,14.3
					c-14.4,0.1-28.9,0-43.3,0c-7.4,0-14.2-6.4-14.3-14.1c-0.1-18.5,0-37.1,0-55.6c0-7.4,6.4-14.2,14.1-14.3
					C281,217.6,295.5,217.6,310,217.7z M266.6,221.6c-5.7,0.1-10.3,4.6-10.5,10.3c-0.1,18.6-0.1,37.1,0,55.7
					c0.2,5.6,4.7,10.1,10.4,10.3c14.5,0.1,28.9,0.1,43.4,0c5.6-0.2,10.1-4.7,10.3-10.3c0.1-18.6,0.1-37.1,0-55.7
					c-0.2-5.6-4.7-10.1-10.3-10.3C295.5,221.6,281.1,221.6,266.6,221.6L266.6,221.6z"/>
				<path fill="#FFFFFF" fill-opacity="0.3" d="M296.8,257h-17.2c-2.2,0-4-1.8-4-4l0,0v-17.5c0-2.2,1.8-4,4-4l0,0h17.5
					c2.2,0,4,1.8,4,4l0,0V253c0,2.2-1.8,4-4,4l0,0"/>
				<path fill="#FFFFFF" fill-opacity="0.3" d="M296.8,287.9h-17.2c-2.2,0-4-1.8-4-4l0,0v-17.5c0-2.2,1.8-4,4-4l0,0h17.5
					c2.2,0,4,1.8,4,4l0,0v17.5c0,2.2-1.8,4-4,4"/>
				<path fill="#FFFFFF" fill-opacity="0.3" d="M296.8,257h-17.2c-2.2,0-4-1.8-4-4l0,0v-17.5c0-2.2,1.8-4,4-4l0,0h17.5
					c2.2,0,4,1.8,4,4l0,0V253c0,2.2-1.8,4-4,4l0,0"/>
				<path fill="#FFFFFF" fill-opacity="0.3" d="M296.8,287.9h-17.2c-2.2,0-4-1.8-4-4l0,0v-17.5c0-2.2,1.8-4,4-4l0,0h17.5
					c2.2,0,4,1.8,4,4l0,0v17.5c0,2.2-1.8,4-4,4"/>
				<path fill="#FFFFFF" d="M376.8,358.2c0,4.7-3.8,8.5-8.5,8.5s-8.5-3.8-8.5-8.5s3.8-8.5,8.5-8.5l0,0
					C373,349.7,376.8,353.5,376.8,358.2"/>
				<path fill="#41146C" d="M578.9,36c1.1,0.1,1.6,1.8,0.3,2.3c-2.2,0.6-4.5,1.2-6.7,1.8c-1.1,0.3-2-1.8-0.7-2.2
					C574.3,37.1,576.6,36,578.9,36z"/>
				<path fill="#41146C" d="M562.5,20.7c0.7,0.1,1.2,0.6,1.1,1.3l0,0c-0.3,2.1-0.8,4.2-1.2,6.4c-0.2,1.2-2.5,1.1-2.3-0.4
					c0.3-2.1,0.8-4.2,1.2-6.4C561.4,21.1,561.9,20.7,562.5,20.7z"/>
				<path fill="#41146C" d="M572,26.4c0.7,0.1,1.1,0.7,1.1,1.3c0,0.2-0.1,0.4-0.2,0.6c-1.6,1.7-3.2,3.5-4.8,5.1
					c-0.8,0.8-2.7-0.4-1.7-1.6c1.6-1.7,3.2-3.4,4.8-5.1C571.3,26.5,571.7,26.4,572,26.4z"/>
				<path fill-rule="evenodd" clip-rule="evenodd" fill="#00BCFF" d="M474.8,305.5H364.4c-6.8,0-12.4-5.5-12.4-12.4v-88.6
					c0-6.8,5.5-12.4,12.4-12.4h110.5c6.8,0,12.4,5.5,12.4,12.4v88.6C487.2,300,481.7,305.5,474.8,305.5L474.8,305.5z"/>
				<path fill="#41146C" d="M474.9,190.4c7.7,0.3,13.9,6.4,14.1,14.1c0.2,29.6,0,59.2,0,88.8c0,7.4-6.4,14.2-14.1,14.3
					c-36.8,0.2-73.6,0-110.4,0c-7.4,0-14.2-6.4-14.3-14.1c-0.2-29.6,0-59.2,0-88.8c0-7.4,6.4-14.2,14.1-14.3
					C401.2,190.2,438,190.2,474.9,190.4z M364.5,194.3c-5.7,0.2-10.2,4.7-10.5,10.3c-0.2,29.6-0.2,59.2,0,88.8
					c0.2,5.6,4.7,10.1,10.3,10.3c36.8,0.2,73.7,0.2,110.5,0c5.6-0.2,10.1-4.7,10.3-10.3c0.2-29.6,0.2-59.2,0-88.8
					c-0.2-5.6-4.7-10.1-10.3-10.3C438.1,194.1,401.3,194.3,364.5,194.3L364.5,194.3z"/>
				<path fill="#FFFFFF" fill-opacity="0.3" d="M469,224.2h-53.6c-1.6,0-2.8-1.3-2.8-2.8v-9.5c0-1.6,1.3-2.8,2.8-2.8l0,0h53.8
					c1.6,0,2.8,1.3,2.8,2.8v9.5c0,1.5-1.3,2.8-2.8,2.8"/>
				<path fill="#FFFFFF" fill-opacity="0.3" d="M467.8,291.6H417c-2.4,0-4.4-2-4.4-4.4l0,0v-51.9c0-2.4,2-4.4,4.4-4.4l0,0h50.7
					c2.4,0,4.4,2,4.4,4.4l0,0v51.9C472.1,289.6,470.1,291.6,467.8,291.6"/>
				<path fill="#FFFFFF" fill-opacity="0.3" d="M401.1,291.6H370c-1.6,0-2.8-1.3-2.8-2.8V212c0-1.6,1.3-2.8,2.8-2.8h31.3
					c1.6,0,2.8,1.3,2.8,2.8v76.8C404.1,290.4,402.8,291.6,401.1,291.6"/>
				<path fill="#41146C" d="M711.5,320.5c0.8,0.2,0.9,0.6,1.1,1.4c3.8,13.4-1.1,28.8-12.3,37.4c-0.7,0.5-1.4,1.1-2.2,0.6
					c-0.5-0.3-0.7-1-0.4-1.6c0.1-0.1,0.2-0.2,0.3-0.3c0.9-0.6,0.9-0.7,1.3-1c10.2-8.5,14.4-22.3,10.7-35.1
					C710.2,321.9,710.3,320.3,711.5,320.5z"/>
				<path fill="#41146C" d="M699.9,303.6c0.9,0.1,1.6,1,2.3,1.6c2.3,2.1,4.4,4.5,6.1,7.1c0.2,0.4,0.2,1-0.1,1.4
					c-0.6,0.7-1.4,0.6-2.2-0.7c-1.9-2.8-4.2-5.3-6.8-7.4c-0.3-0.2-0.4-0.6-0.4-0.9c0-0.6,0.4-1.1,1.1-1.2
					C699.8,303.6,699.9,303.6,699.9,303.6z"/>
				<path fill="#D6D5EB" d="M431.4,144.3V166h-23.1v-18.3c4.3,3.5,10.3,4,15.2,1.2L431.4,144.3z"/>
				<path fill="#41146C" d="M431.6,142.5c1,0.1,1.7,0.9,1.7,1.8V166c0,0.2,0,0.4-0.1,0.6c-0.2,0.8-1,1.3-1.7,1.2h-23
					c-0.2,0-0.4,0-0.6-0.1c-0.8-0.2-1.3-1-1.2-1.7v-18.3c0-0.9,0.2-0.9,0.4-1.2c1.2-1.4,3.3,0.6,5.3,1.4c3.3,1.4,7.1,1.1,10.3-0.6
					l7.8-4.5C431.1,142.3,431,142.4,431.6,142.5z M424.5,150.5c-4.4,2.5-9.7,2.7-14.3,0.5v13.1h19.4v-16.6L424.5,150.5z"/>
				<path fill-rule="evenodd" clip-rule="evenodd" fill="#FF9591" d="M435.4,180h-31.6c-1.5,0-2.7-1.2-2.7-2.7l0,0v-7.9
					c0-1.9,1.5-3.4,3.4-3.4h30.3c1.9,0,3.4,1.5,3.4,3.4v7.9C438.1,178.8,436.9,180,435.4,180z"/>
				<path fill="#41146C" d="M434.9,163.9c2.7,0.1,4.9,2.3,5.1,5.1c0.1,5.3,1.3,12.4-4.4,12.7c-10.6,0.1-21.2,0-31.8,0
					c-2.4-0.1-4.4-2-4.5-4.4c0-4.2-1-9.1,1.4-11.7c1-1,2.3-1.6,3.6-1.6C414.5,163.8,424.7,163.8,434.9,163.9z M404.5,167.6
					c-0.8,0-1.5,0.7-1.5,1.5c0,2.7-0.1,5.4,0,8.1c0,0.4,0.4,0.8,0.8,0.8c10.6,0.4,21.1,0.4,31.7,0c0.4,0,0.8-0.4,0.8-0.8
					c0.1-2.7,0-5.4,0-8.1c0-0.8-0.7-1.4-1.5-1.5C424.7,167.5,414.6,167.6,404.5,167.6L404.5,167.6z"/>
				<path fill="#41146C" d="M420,179.5c0.2,0,0.4,0,0.6,0.1c0.7,0.3,1.2,0.9,1.1,1.7v10.4c0,1.8-3.6,2.6-3.6,0v-10.4
					c0-0.2,0-0.4,0.1-0.6C418.4,179.9,419.2,179.3,420,179.5z"/>
				<path fill="#D6D5EB" d="M536.5,83.3l-105.3,60.8l-7.9,4.5c-4.8,2.8-10.8,2.3-15.1-1.2c-1.3-1-2.3-2.3-3.2-3.7
					c-3.7-6.4-1.5-14.6,4.9-18.3l123.5-71.3c0.3-0.2,0.6-0.3,0.9-0.5c-4.5,4.9-5.7,12.1-3,18.2L536.5,83.3z"/>
				<path fill="#FFFFFF" fill-opacity="0.3" d="M536.5,83.3l-105.3,60.8l-7.9,4.5c-4.8,2.8-10.8,2.3-15.1-1.2
					c-1.3-1-2.3-2.3-3.2-3.7c-3.7-6.4-1.5-14.6,4.9-18.3l123.5-71.3c0.3-0.2,0.6-0.3,0.9-0.5c-4.5,4.9-5.7,12.1-3,18.2L536.5,83.3z"
					/>
				<path fill="#41146C" d="M534.7,51.8c1.6,0.5,1.8,2.3,0.5,3.8c-3.5,4.4-4.3,10.3-2.1,15.5l5.1,11.5c0.5,1.4,0.3,1.7-0.8,2.5
					c-37.9,21.8-75.7,44-113.4,65.4c-7,3.9-16.8,1.4-20.9-5.9c-3.8-6.8-1.5-16.4,5.5-20.7C449.7,99.8,491,76,532.4,52.4
					C533.2,52.1,533.4,51.6,534.7,51.8z M410.8,127.2c-7,4.1-7.9,16.3,0.9,20.3c3.3,1.5,7.2,1.3,10.4-0.4c2.7-1.5,5.3-3.1,8-4.6
					l103.9-60c-2.1-4.7-4.8-9.4-5.7-14.1c-0.6-3.2-0.3-6.4,0.7-9.5L410.8,127.2z"/>
				<path fill="#FFFFFF" d="M423.8,135.3c0,2.3-1.9,4.2-4.2,4.2c-2.3,0-4.2-1.9-4.2-4.2s1.9-4.2,4.2-4.2S423.8,133,423.8,135.3
					L423.8,135.3"/>
				<path fill="#41146C" d="M419.7,129.2c4.6,0.1,8,6.7,4.1,10.4c-3.5,3.3-11.1,0.5-10.2-5.3c0.5-2.9,2.9-5,5.8-5.1L419.7,129.2
					L419.7,129.2z M419.6,133c-2,0-3.3,3.5-0.9,4.5c1.2,0.5,2.6-0.1,3.1-1.3s-0.1-2.6-1.3-3.1C420.2,133,419.9,133,419.6,133z"/>
				<path fill="#41146C" d="M501.7,85.5c2.2,0.2,1.2,1.7,0.5,2.2L487,96.4c-0.3,0.2-0.6,0.2-0.9,0.1c-0.6-0.2-1-0.9-0.7-1.5
					c0.1-0.2,0.2-0.5,0.5-0.6l15.2-8.8C501.2,85.5,501.5,85.5,501.7,85.5z"/>
				<path fill="#41146C" d="M476.1,100.2c0.7,0.1,1.1,0.7,1,1.4c0,0.3-0.2,0.6-0.5,0.8l-39.4,22.7c-2,1-2.1-1.4-1.2-2l39.4-22.7
					C475.6,100.3,475.9,100.2,476.1,100.2z"/>
				<path fill="#FFFFFF" d="M631.9,410.4h-39.7V431h-20.6v-20.6h-39.9c2-27.7,26-48.6,53.7-46.6
					C610.3,365.6,630.1,385.4,631.9,410.4L631.9,410.4z"/>
				<path fill="#41146C" d="M582,361.8c24.1,0.2,46.7,18.9,50.7,43.6c0.1,0.5,0.2,1,0.2,1.5c0.3,2.5,0.7,5.2-1.6,5.4H594V431
					c0,0-0.2,1.8-1.9,1.9h-20.4c-1.9-0.1-1.8-0.8-1.9-1.9v-18.7h-37.6c-0.4,0-0.7-0.1-1-0.3c-1.7-1.1-0.8-3.7-0.4-6.2
					c3.6-23.3,24-42.7,48.5-43.9C580.1,361.8,581.1,361.8,582,361.8z M571.9,408.1c1.2,0.4,1.3,0.7,1.4,1.9v18.7h17V410
					c0.1-1.9,0.8-1.9,2-1.9h38.1c-2.2-18.3-15.9-34.9-33.9-40.5c-15.2-4.6-31.8-1.7-44.6,7.7c-10.4,7.9-17.3,19.7-18.9,32.7h38.3
					C571.5,408,571.7,408,571.9,408.1L571.9,408.1z"/>
				<path fill-rule="evenodd" clip-rule="evenodd" fill="#FFCF91" d="M631.6,414.1v49.7H531.5v-49.7c0-1.2,0-2.4,0.1-3.7h39.9V431
					h20.6v-20.6h39.3C631.5,411.6,631.6,412.8,631.6,414.1z"/>
				<path fill="#41146C" d="M631.8,408.1c1.5,0.6,1.4,1.5,1.5,2.7s0.1,2.9,0.1,2.9v50.1c0,0-0.2,1.8-1.9,1.9h-99
					c-1.9-0.1-1.8-0.8-1.9-1.9c0-16.8,0-33.5,0-50.3c0-0.9,0-1.8,0.1-2.6c0.1-1.3,0.3-2.6,2-2.8h38.7c1.9,0.1,1.9,0.8,2,1.9v18.7h17
					V410c0.1-0.8,0.2-0.8,0.3-1c0.3-0.6,0.9-0.9,1.6-0.9h39.1C631.5,408,631.7,408,631.8,408.1z M533.3,412.2c0,0.6,0,1.2,0,1.7v48
					h97.2c0-16.1,0-32.1,0-48.2c0-0.7,0-1.5,0-1.5H594v18.7c-0.1,0.8-0.2,0.8-0.3,1c-0.3,0.6-0.9,0.9-1.6,0.9h-20.4
					c-0.8-0.1-0.8-0.2-1-0.3c-0.6-0.3-0.9-1-0.9-1.6v-18.7H533.3z"/>
				<path fill="#D6D5EB" d="M667.3,358.2L667.3,358.2l-6.8,19.1c-0.6,1.8-1.6,3.4-2.9,4.7l-26.1,28.1c-1.7-23.2-19.1-42.1-42-45.8
					l45.4-30.8c0,14.2,11.5,25.6,25.7,25.6h0.6C663.2,359.1,665.3,358.8,667.3,358.2z"/>
				<path fill="#41146C" d="M635.2,331.6c1.1,0.2,1.7,1.1,1.7,2.4v0.4c0.6,14.1,15.3,25.9,29.9,22c0.6-0.1,1.1,0,1.6,0.3
					c0.7,0.5,1,1.5,0.7,2.4c-3.2,6.2-4.3,13.4-7.1,19.9c-0.7,1.6-1.7,3.2-2.9,4.5l-26.1,28c-1.3,1.2-3.2,0.2-3.5-2.3
					c-2.1-20.9-18.8-39.4-40.3-43c0,0-3.1-1.7-0.8-3.5l45.4-30.8C634.2,331.6,634.7,331.4,635.2,331.6z M594.4,363.3
					c0.3,0.1,0.5,0.1,0.8,0.2c19.1,5.2,34.6,21.9,37.8,42.2c7.8-8.4,15.6-16.7,23.4-25.2c1-1.2,1.8-2.5,2.4-4l5.6-15.8
					c-3.4,0.4-6.9,0.2-10.3-0.5c-11-2.9-19.2-12-20.8-23.3L594.4,363.3z"/>
				<path fill-rule="evenodd" clip-rule="evenodd" fill="#FF9591" d="M686.2,333.5c0,11.6-7.8,21.7-18.9,24.8
					c-2,0.5-4.1,0.8-6.1,0.9c-0.2,0-0.4,0-0.6,0c-11.4,0-21.4-7.5-24.6-18.4c-0.7-2.3-1-4.8-1-7.2c0-14.2,11.5-25.6,25.6-25.7
					c0.8,0,1.5,0,2.3,0.1C676.1,309.1,686.2,320.2,686.2,333.5"/>
				<path fill="#41146C" d="M660.7,305.9c11.3,0.1,22,7.7,25.8,18.2c4,11,0.1,24.3-9.4,31.4c-4.6,3.4-10.2,5.3-15.9,5.5
					c-17.4,0.6-33.3-17.8-26.7-36.7c3.9-10.7,14-18,25.4-18.5L660.7,305.9z M660.4,309.8c-14.2,0.2-27.3,14.4-22.6,30.4
					c2.9,9.9,12.5,17.2,23,17c1.1,0,2.2-0.1,3.3-0.3c13.5-2.1,23.7-17.3,18.8-31.3c-3.4-9.2-12-15.5-21.8-15.8L660.4,309.8z"/>
				<path fill="#FFFFFF" d="M667.2,332.4c0,3.7-3,6.7-6.7,6.7s-6.7-3-6.7-6.7s3-6.7,6.7-6.7l0,0
					C664.3,325.7,667.2,328.7,667.2,332.4"/>
				<path fill="#41146C" d="M660.7,323.8c5.9,0.1,10.6,7.3,7.4,12.9c-3,5.3-12.3,5.5-15.2-0.6c-2.5-5.1,1.4-12.2,7.7-12.4h0.1V323.8
					z M660.5,327.7c-3.6,0.1-6.3,5.2-3.3,8.2s10.3-0.4,7.5-5.6C663.9,328.7,662.3,327.7,660.5,327.7L660.5,327.7z"/>
				<path fill="#D6D5EB" d="M674.2,311.8c-3.4-2.2-7.3-3.5-11.4-3.9c-0.8-0.1-1.5-0.1-2.3-0.1c-7.7,0-14.9,3.4-19.8,9.4L536.5,83.3
					l-5.1-11.5c-3.8-8.4-0.1-18.3,8.3-22.1c8.4-3.8,18.3-0.1,22.1,8.3c0,0.1,0.1,0.1,0.1,0.2L674.2,311.8z"/>
				<path fill="#FFFFFF" fill-opacity="0.3" d="M674.2,311.8c-3.4-2.2-7.3-3.5-11.4-3.9c-0.8-0.1-1.5-0.1-2.3-0.1
					c-7.7,0-14.9,3.4-19.8,9.4L536.5,83.3l-5.1-11.5c-3.8-8.4-0.1-18.3,8.3-22.1c8.4-3.8,18.3-0.1,22.1,8.3c0,0.1,0.1,0.1,0.1,0.2
					L674.2,311.8z"/>
				<path fill="#41146C" d="M546.8,46.6c7.3,0.2,13.8,4.5,16.8,11.1L676,311.2l0.2,0.8l-0.2,0.8l-0.5,0.7l-0.7,0.4L674,314l-0.8-0.3
					c-9.7-6.1-23.4-4.1-31,5l-0.6,0.5l-0.8,0.2l-0.8-0.1l-0.7-0.4l-0.5-0.6l-104.3-234c-1.7-3.9-3.5-7.7-5.2-11.6
					c-0.3-0.8-0.6-1.5-0.8-2.3c-3.1-10.8,5.5-23.5,17.6-23.8L546.8,46.6z M546.5,50.2c-9.5,0.1-17.6,10.8-13.4,20.7
					c1.7,3.9,3.5,7.7,5.2,11.6l103.1,231.2c7.7-7.4,18.9-9.7,28.9-6.1h0.1c-36.7-82.9-73-166.1-110.2-248.8
					C557.7,53.6,552.3,50.2,546.5,50.2L546.5,50.2z"/>
				<path fill="#FFFFFF" d="M552.3,68.2c-0.7,2.6-3.4,4.2-6,3.5s-4.2-3.4-3.5-6s3.4-4.2,6-3.5l0,0C551.4,62.9,553,65.6,552.3,68.2"
					/>
				<path fill="#41146C" d="M547.6,60.1c5.3,0.1,9.2,7.8,4.5,12c-4.1,3.7-12.9-0.2-11.2-6.8C541.7,62.2,544.4,60.1,547.6,60.1z
					 M547.5,64c-2.5,0.1-4.1,4.3-1.2,5.7c1.5,0.7,3.3,0,3.9-1.5c0.7-1.5,0-3.3-1.5-3.9C548.3,64,547.9,64,547.5,64z"/>
				<path fill="#41146C" d="M581,137.3c0.4,0.1,0.7,0.4,0.9,0.7l53.3,119.5c0.4,1.2-1.4,2.2-2.1,0.9l-53.3-119.5
					c-0.2-0.6-0.1-0.7,0-0.9C579.9,137.6,580.1,137.2,581,137.3z"/>
				<path fill="#41146C" d="M557.8,85.5c0.6,0.1,0.7,0.2,0.9,0.7l18,40.4c0.9,2.3-1.6,2-2.1,0.9l-18-40.4c-0.2-0.6,0.1-1.3,0.7-1.6
					C557.5,85.5,557.6,85.5,557.8,85.5z"/>
				<path fill="#41146C" d="M644.9,352.6c0.3,0,0.6,0.1,0.8,0.4c0.4,0.5,0.4,1.2-0.1,1.6l-16.4,15.8c-0.7,0.6-0.8,0.4-1.2,0.2
					c-0.6-0.3-0.9-1-0.6-1.6c0.1-0.1,0.1-0.3,0.2-0.4l16.4-15.8C644.2,352.6,644.6,352.5,644.9,352.6z"/>
				<path fill="#41146C" d="M595.6,376.7c1.6,0.1,4.3,1.8,6.7,3.3c2.6,1.6,5,3.5,7.1,5.6c0.2,0.3,0.3,0.6,0.3,1
					c-0.1,1-1.2,1.4-2.5,0.2c-3.5-3.4-7.7-6-12.2-7.8c0,0-0.8-0.5-0.7-1.2C594.5,377.1,594.7,376.7,595.6,376.7z"/>
				<polyline fill-rule="evenodd" clip-rule="evenodd" fill="#7F77BF" points="611.5,449.2 631.6,449.2 631.6,463.8 531.5,463.8 
					531.5,449.2 589.7,449.2 				"/>
				<path fill="#41146C" d="M632.1,447.5c1.1,0.4,1.2,0.6,1.3,1.7v15.1c-0.1,1.9-0.8,1.9-1.9,1.9H531c-0.8-0.1-0.8-0.2-1-0.3
					c-0.6-0.3-0.9-1-0.9-1.6v-15.1c0.1-0.8,0.2-0.8,0.3-1c0.3-0.6,1-0.9,1.6-0.8h58.2c2,0.1,2.6,3.5,0,3.6h-55.9v11h96.4v-10.9
					h-17.3c-1.8-0.1-2.5-3.5,0-3.6h19.1C631.7,447.4,631.9,447.4,632.1,447.5z"/>
				<rect x="618.8" y="412.2" fill-opacity="0.25" width="10.9" height="35.2"/>
				<rect x="618.8" y="451.1" fill-opacity="0.25" width="10.9" height="10.9"/>
				<path d="M629.3,408c-0.1-4-2.4-11-3.1-12.4c-1.9-4.6-4.5-8.9-7.7-12.8c-4.9-6.1-12.8-10.7-12.8-10.7s13,8.1,13.1,36L629.3,408z"
					/>
				<path fill-opacity="0.25" d="M668.1,355.8c1.3,0,10.5-4,14.2-13.2s1.8-16.5-3.2-23.7s-15.2-9-15.2-9s15.3,10,14.5,24.4
					S668.1,355.8,668.1,355.8"/>
				<path fill-opacity="0.25" d="M632.9,405.6c0.4-1.2-2.9-16.4-13.9-28c-6.7-7-15.2-11.9-24.6-14.3l9.5-6.6
					c0,0,32.5,13.3,36.1,41.5L632.9,405.6z"/>
				<g id="Line">
					<path fill="#EBE9F2" d="M697.1,464.4h26.1"/>
					<path fill="#41146C" d="M722.4,462.6c1.3,0.1,1.2,0.4,1.5,1c0.4,0.9,0,2.1-0.9,2.5c-0.2,0.1-0.4,0.2-0.7,0.2h-24.6
						c-1.9-0.1-2.6-3.5,0-3.6L722.4,462.6L722.4,462.6z"/>
					<path fill="#41146C" d="M682,462.4l0.8,0.2c0.4,0.2,0.7,0.5,0.9,0.9l0.1,0.7l-0.1,0.7l-0.4,0.6l-0.6,0.4L682,466l-633.3,0.2
						l-0.7-0.1c-0.4-0.2-0.8-0.6-1.1-1l-0.1-0.7l0.1-0.7l0.4-0.6l0.6-0.4l0.7-0.1L682,462.4z"/>
					<path fill="#41146C" d="M34.5,462.6c0.9,0.1,1,0.3,1.2,0.6c0.6,0.8,0.5,2-0.3,2.6c-0.3,0.2-0.7,0.4-1,0.4h-23
						c-0.6,0.1-1.1-0.2-1.4-0.7c-0.6-0.8-0.4-2,0.4-2.6c0.3-0.2,0.7-0.3,1-0.4h23.1V462.6z"/>
					<path fill="#D6D5EB" d="M124.8,464.4L124.8,464.4L124.8,464.4L124.8,464.4z"/>
					<path fill="#41146C" d="M124.8,462.6c1.1,0,1.9,0.9,1.9,2s-0.9,1.9-2,1.9c-0.3,0-0.7-0.1-1-0.3c0,0-1.3-1.2-0.8-2.4
						C123.3,463.1,124,462.6,124.8,462.6z M123.1,463.7l1.7,2.8l1.2-3.4L123.1,463.7z M123.7,466.1
						C123.7,466.2,123.9,466.3,123.7,466.1L123.7,466.1L123.7,466.1z M125.8,462.9l0.2,0.1l0,0C125.9,462.9,125.8,462.9,125.8,462.9
						L125.8,462.9z"/>
				</g>
			</g>
		</g>
	</g>
</g>
</svg>
