<svg xmlns="http://www.w3.org/2000/svg" xmlns:xlink="http://www.w3.org/1999/xlink" width="130.84" height="26.719" viewBox="0 0 130.84 26.719">
  <defs>
    <linearGradient id="linear-gradient" x1="0.714" y1="0.054" x2="0.263" y2="0.993" gradientUnits="objectBoundingBox">
      <stop offset="0" stop-color="#58c0ec"/>
      <stop offset="1" stop-color="#088dc6"/>
    </linearGradient>
  </defs>
  <g id="Group_513" data-name="Group 513" transform="translate(-6197 -4455.457)">
    <path id="Path_613" data-name="Path 613" d="M18.437,26.711a2.833,2.833,0,0,1-1.214-.267c-.436-.154-.869-.315-1.305-.473l-2.485-.9-1.792-.644-2.707-.99L7.4,22.887,5.02,22.024l-1.527-.549c-.681-.248-1.368-.477-2.042-.749a2.268,2.268,0,0,1-1.1-.99,2.549,2.549,0,0,1-.356-1.153,2.828,2.828,0,0,1,.2-1.155q.236-.654.473-1.3.44-1.21.877-2.42c.184-.511.366-1.026.551-1.537.3-.814.594-1.628.885-2.442.186-.513.366-1.026.553-1.539L4.39,5.812c.186-.513.368-1.026.553-1.537.3-.818.594-1.634.887-2.454a2.945,2.945,0,0,1,.5-.905A2.575,2.575,0,0,1,7.392.156,2.311,2.311,0,0,1,8.254,0a2.689,2.689,0,0,1,.961.186c.436.166.875.321,1.313.481l2.408.873,1.848.663,2.4.869,1.493.537,2.507.9,1.515.545c.814.3,1.636.57,2.442.889A2.408,2.408,0,0,1,26.68,7.832a2.481,2.481,0,0,1-.147,1.386c-.232.594-.434,1.2-.65,1.8-.325.9-.654,1.8-.978,2.7q-.287.772-.555,1.533l-.891,2.464c-.222.612-.44,1.226-.661,1.836-.281.792-.568,1.561-.85,2.343-.226.626-.448,1.254-.673,1.881-.2.515-.364,1.036-.576,1.541a2.145,2.145,0,0,1-.594.792,2.539,2.539,0,0,1-1.026.547,1.782,1.782,0,0,1-.642.059Z" transform="translate(6197.011 4455.458)" fill="url(#linear-gradient)"/>
    <path id="Path_614" data-name="Path 614" d="M34.6,53.768a2.014,2.014,0,0,1-.758-.131c-3.2-1.151-6.395-2.293-9.587-3.458a2.141,2.141,0,0,1-1.471-1.969,2.248,2.248,0,0,1,1.959-2.4,2.353,2.353,0,0,1,1.121.135l7.288,2.628c.089.034.109,0,.135-.071q1.25-3.5,2.5-7a2.842,2.842,0,0,1,.5-.98,2.267,2.267,0,0,1,3.961,1.022,2.575,2.575,0,0,1-.18,1.452q-1.4,3.9-2.79,7.791c-.178.5-.354.99-.537,1.487a2.24,2.24,0,0,1-2.141,1.5Z" transform="translate(6178.735 4423.619)" fill="#fefefe"/>
    <path id="Path_615" data-name="Path 615" d="M44.788,34.714a2.717,2.717,0,1,1,2.727-2.676A2.717,2.717,0,0,1,44.788,34.714Z" transform="translate(6163.255 4431.976)" fill="#fefefe"/>
    <path id="Path_616" data-name="Path 616" d="M.8-.2A.177.177,0,0,0,1,0H3.5a.177.177,0,0,0,.2-.2V-11.42q0-.18.14-.18.12,0,.18.18l2.7,9.94a1.83,1.83,0,0,0,.26.54,2.555,2.555,0,0,0,.42.47,2.268,2.268,0,0,0,.51.34A1.179,1.179,0,0,0,8.42,0h1.84a1.575,1.575,0,0,0,.79-.21,2.194,2.194,0,0,0,.64-.55,2.94,2.94,0,0,0,.43-.74,2.14,2.14,0,0,0,.16-.8V-14.14a.177.177,0,0,0-.2-.2H9.58a.177.177,0,0,0-.2.2V-2.96q0,.2-.14.2t-.2-.2L6.36-12.84a1.956,1.956,0,0,0-.77-1.1,3.25,3.25,0,0,0-1.83-.4,5.088,5.088,0,0,0-1.43.17,2.06,2.06,0,0,0-.91.52,1.956,1.956,0,0,0-.48.91A5.587,5.587,0,0,0,.8-11.4Zm12.34.08q0,.12.16.12h2.6a.251.251,0,0,0,.26-.2l1.06-3.42a.256.256,0,0,1,.26-.22h4.7a.251.251,0,0,1,.26.2L23.5-.18a.248.248,0,0,0,.26.18h2.62q.14,0,.14-.12L22.5-13.16a1.347,1.347,0,0,0-.89-.98,6.333,6.333,0,0,0-1.79-.2,6.044,6.044,0,0,0-1.74.2,1.347,1.347,0,0,0-.88.98Zm8.32-6.7a.139.139,0,0,0,.01.06.089.089,0,0,1,.01.04q0,.14-.16.14H18.34q-.16,0-.16-.14a.089.089,0,0,1,.01-.04.139.139,0,0,0,.01-.06l1.4-4.56q.12-.36.22-.36a.148.148,0,0,1,.14.07,1.481,1.481,0,0,1,.1.29ZM27.66-.2a.177.177,0,0,0,.2.2h2.5a.177.177,0,0,0,.2-.2V-11.28q0-.14.08-.14h.1q.08.02.13.21a1.739,1.739,0,0,0,.07.23l2,9.52a2.845,2.845,0,0,0,.18.5,1.409,1.409,0,0,0,.36.47,1.982,1.982,0,0,0,.61.35,2.722,2.722,0,0,0,.95.14A3.191,3.191,0,0,0,36.1-.15a1.853,1.853,0,0,0,.67-.39,1.8,1.8,0,0,0,.39-.54,2.589,2.589,0,0,0,.2-.62q.48-2.2.77-3.61t.49-2.32q.2-.91.31-1.46t.23-1.05q.02-.08.05-.24l.06-.32q.03-.16.06-.3a.95.95,0,0,1,.05-.18,1.117,1.117,0,0,1,.09-.15.172.172,0,0,1,.15-.07q.1,0,.12.13a1.456,1.456,0,0,1,.02.17V-.2a.177.177,0,0,0,.2.2h2.5a.177.177,0,0,0,.2-.2V-12.12a1.867,1.867,0,0,0-.8-1.72,3.832,3.832,0,0,0-2.06-.5,8.46,8.46,0,0,0-1.44.1,1.7,1.7,0,0,0-.91.44,2.38,2.38,0,0,0-.56,1.03,13.963,13.963,0,0,0-.39,1.85L35.46-4.16a1.376,1.376,0,0,1-.04.21q-.04.17-.08.35a1.811,1.811,0,0,1-.1.32q-.06.14-.1.14t-.09-.14q-.05-.14-.1-.32a3.486,3.486,0,0,1-.08-.36q-.03-.18-.05-.26l-1.08-6.62a18.023,18.023,0,0,0-.4-1.9,2.392,2.392,0,0,0-.55-1.05,1.648,1.648,0,0,0-.89-.45,7.954,7.954,0,0,0-1.4-.1,4.966,4.966,0,0,0-1.05.11,2.7,2.7,0,0,0-.91.37,1.907,1.907,0,0,0-.64.7,2.276,2.276,0,0,0-.24,1.1ZM43.8-.12q0,.12.16.12h2.6a.251.251,0,0,0,.26-.2l1.06-3.42a.256.256,0,0,1,.26-.22h4.7a.251.251,0,0,1,.26.2L54.16-.18a.248.248,0,0,0,.26.18h2.62q.14,0,.14-.12L53.16-13.16a1.347,1.347,0,0,0-.89-.98,6.333,6.333,0,0,0-1.79-.2,6.044,6.044,0,0,0-1.74.2,1.347,1.347,0,0,0-.88.98Zm8.32-6.7a.139.139,0,0,0,.01.06.089.089,0,0,1,.01.04q0,.14-.16.14H49q-.16,0-.16-.14a.089.089,0,0,1,.01-.04.139.139,0,0,0,.01-.06l1.4-4.56q.12-.36.22-.36a.148.148,0,0,1,.14.07,1.482,1.482,0,0,1,.1.29ZM67.4-2.6H61.98q-.78,0-.78-.66V-14.14a.177.177,0,0,0-.2-.2H58.5a.177.177,0,0,0-.2.2V-3.5A3.822,3.822,0,0,0,59-.99a3.325,3.325,0,0,0,2.36.97A1.242,1.242,0,0,0,61.6,0h5.8a.177.177,0,0,0,.2-.2V-2.4A.177.177,0,0,0,67.4-2.6Zm1.06-11.54V-.2a.177.177,0,0,0,.2.2h2.5a.177.177,0,0,0,.2-.2V-14.14a.177.177,0,0,0-.2-.2h-2.5A.177.177,0,0,0,68.46-14.14ZM72.92-.2a.177.177,0,0,0,.2.2h2.5a.177.177,0,0,0,.2-.2V-11.42q0-.18.14-.18.12,0,.18.18l2.7,9.94a1.83,1.83,0,0,0,.26.54,2.555,2.555,0,0,0,.42.47,2.267,2.267,0,0,0,.51.34,1.179,1.179,0,0,0,.51.13h1.84a1.575,1.575,0,0,0,.79-.21,2.194,2.194,0,0,0,.64-.55,2.94,2.94,0,0,0,.43-.74,2.14,2.14,0,0,0,.16-.8V-14.14a.177.177,0,0,0-.2-.2H81.7a.177.177,0,0,0-.2.2V-2.96q0,.2-.14.2t-.2-.2l-2.68-9.88a1.956,1.956,0,0,0-.77-1.1,3.25,3.25,0,0,0-1.83-.4,5.088,5.088,0,0,0-1.43.17,2.06,2.06,0,0,0-.91.52,1.956,1.956,0,0,0-.48.91,5.587,5.587,0,0,0-.14,1.34Zm13-1.9a1.78,1.78,0,0,0,.17.75,2.515,2.515,0,0,0,.45.67,2.406,2.406,0,0,0,.64.49A1.531,1.531,0,0,0,87.9,0h7.74a.177.177,0,0,0,.2-.2V-2.4a.177.177,0,0,0-.2-.2H89.02a.177.177,0,0,1-.2-.2V-5.7a.177.177,0,0,1,.2-.2h6.14a.177.177,0,0,0,.2-.2V-8.4a.177.177,0,0,0-.2-.2H89.02a.177.177,0,0,1-.2-.2v-2.72q0-.22.2-.22h6.62a.177.177,0,0,0,.2-.2v-2.2q0-.2-.26-.2H88.8a2.684,2.684,0,0,0-2.14.85,3.244,3.244,0,0,0-.74,2.21Z" transform="translate(6232 4477)" fill="#2da5d9"/>
  </g>
</svg>
