<svg xmlns="http://www.w3.org/2000/svg" width="30.551" height="33.669" viewBox="0 0 30.551 33.669">
  <path id="Path_4597" data-name="Path 4597" d="M438.576,61.844a3.193,3.193,0,0,1-1.194-.206c-5.032-1.811-10.066-3.61-15.089-5.443a3.364,3.364,0,0,1-2.316-3.1,3.535,3.535,0,0,1,3.08-3.775,3.722,3.722,0,0,1,1.768.212l11.469,4.137c.14.053.172,0,.212-.112q1.97-5.515,3.944-11.024a4.465,4.465,0,0,1,.786-1.543,3.573,3.573,0,0,1,6.241,1.612,4.053,4.053,0,0,1-.287,2.285q-2.207,6.129-4.4,12.261c-.281.779-.558,1.559-.842,2.341a3.529,3.529,0,0,1-3.373,2.354Z" transform="translate(-92.765 -406.3) rotate(69)" fill="#eaeaea"/>
</svg>
