<svg xmlns="http://www.w3.org/2000/svg" xmlns:xlink="http://www.w3.org/1999/xlink" width="97.959" height="116.29" viewBox="0 0 97.959 116.29">
  <defs>
    <filter id="XMLID_524_" x="0" y="2.872" width="97.959" height="113.418" filterUnits="userSpaceOnUse">
      <feOffset dy="4" input="SourceAlpha"/>
      <feGaussianBlur stdDeviation="5" result="blur"/>
      <feFlood flood-opacity="0.569"/>
      <feComposite operator="in" in2="blur"/>
      <feComposite in="SourceGraphic"/>
    </filter>
  </defs>
  <g id="XMLID_564_" transform="translate(15)">
    <g id="XMLID_418_">
      <g id="XMLID_10_">
        <g id="XMLID_149_">
          <g transform="matrix(1, 0, 0, 1, -15, 0)" filter="url(#XMLID_524_)">
            <path id="XMLID_524_2" data-name="XMLID_524_" d="M80.028,73h62.259a2.85,2.85,0,0,1,2.85,2.85V153.57a2.85,2.85,0,0,1-2.85,2.85H80.028a2.85,2.85,0,0,1-2.85-2.85V75.852A2.85,2.85,0,0,1,80.028,73Z" transform="translate(-62.18 -59.13)" fill="#efefef"/>
          </g>
          <g id="XMLID_1489_" transform="translate(33.98 13.872)">
            <path id="XMLID_1438_" d="M287.129,73a2.85,2.85,0,0,1,2.85,2.85V153.57a2.85,2.85,0,0,1-2.85,2.85H256V73Z" transform="translate(-256 -73.002)" fill="#e5e5e5"/>
          </g>
          <path id="XMLID_306_" d="M200.378,0H216.9a2.85,2.85,0,0,1,2.85,2.85V23.878a2.85,2.85,0,0,1-2.85,2.85H200.378a2.85,2.85,0,0,1-2.85-2.85V2.85A2.85,2.85,0,0,1,200.378,0Z" transform="translate(-174.659 0)" fill="#6ec0e4"/>
          <path id="XMLID_595_" d="M200.311,241.484h1.351a12.244,12.244,0,0,1,12.23,12.23v4.308a2.85,2.85,0,0,1-2.85,2.85H190.931a2.85,2.85,0,0,1-2.85-2.85v-4.308A12.244,12.244,0,0,1,200.311,241.484Z" transform="translate(-167.007 -195.597)" fill="#ebca25"/>
        </g>
      </g>
      <path id="XMLID_159_" d="M8.755,0A8.749,8.749,0,1,1,0,8.749,8.752,8.752,0,0,1,8.755,0Z" transform="translate(25.225 47.158) rotate(-89.885)" fill="#ebca25"/>
    </g>
    <text id="EX" transform="translate(17.03 88.733)" fill="#585858" stroke="#585858" stroke-linecap="round" stroke-width="2" font-size="21" font-family="ArialRoundedMTBold, Arial Rounded MT" letter-spacing="0.064em"><tspan x="-7.003" y="0">E</tspan></text>
    <g id="Group_511" data-name="Group 511" transform="translate(27.784 68.733)">
      <text id="EX-2" data-name="EX" transform="translate(6 20)" fill="#585858" stroke="#585858" stroke-linecap="round" stroke-width="2" font-size="21" font-family="ArialRoundedMTBold, Arial Rounded MT" letter-spacing="0.064em"><tspan x="-6.342" y="0">X</tspan></text>
    </g>
    <text id="B" transform="translate(49.929 88.733)" fill="#464646" stroke="#464646" stroke-linecap="round" stroke-width="2" font-size="21" font-family="ArialRoundedMTBold, Arial Rounded MT" letter-spacing="0.064em"><tspan x="-7.552" y="0">B</tspan></text>
  </g>
</svg>
